string getItemIcon(string items)
{
	switch(stof(items))
	{
		case IT_SHOTGUN:
			return "inv_shotgun";
		case IT_SUPER_SHOTGUN:
			return "inv_sshotgun";
		case IT_NAILGUN:
			return "inv_nailgun";
		case IT_SUPER_NAILGUN:
			return "inv_snailgun";
		case IT_GRENADE_LAUNCHER:
			return "inv_rlaunch";
		case IT_ROCKET_LAUNCHER:
			return "inv_srlaunch";
		case IT_LIGHTNING:
			return "inv_lightng";

		case IT_INVULNERABILITY:
			return "sb_invuln";
		case IT_INVISIBILITY:
			return "sb_invis";
		case IT_QUAD:
			return "sb_quad";
		case IT_SUIT:
			return "sb_suit";

		case IT_KEY1:
			return "sb_key1";
		case IT_KEY2:
			return "sb_key2";

		case IT_ARMOR1:
			return 	"sb_armor1";
		case IT_ARMOR2:
			return "sb_armor2";
		case IT_ARMOR3:
			return "sb_armor3";	
		case IT_ARMOR4:				//being lazy here. not sure if theres actually a stat for that. so, making up armor4 for pent
			return "disc";	

		case IT_SHELLS:
			return "sb_shells";
		case IT_NAILS:
			return "sb_nails";
		case IT_ROCKETS:
			return "sb_rocket";
		case IT_CELLS:
			return "sb_cells";

		default:
			return "null";	
	}
}

float hasItem(float IT_NUM)
{
	if(f_items & IT_NUM) //if item is in picked
		return 100;		//so it can be used as a scalar for opacity and the like. 
	return 0; 
};

float hasRune(float IT_NUM)
{
	if(f_serverflags & IT_NUM) //if item is in picked
		return 100;		//so it can be used as a scalar for opacity and the like. 
	return 0; 
};

string getScalarFromString(string scalar)
{
	float start, end, result;
	start = strstrofs(scalar, "_");	//might be a literal, not a scalar

	if(start != -1)
	{
		end = strstrofs(scalar, "_", start + 1);	//might not have a modifier.

		if(end != -1)
		{
			float num, mult;

			mult = stof(substring(scalar, end+1, -1));
			scalar = substring(scalar, 0, end); 

			num = stof(getScalarFromString(scalar));

			result = (num - (mod(num, mult)));

//			cprint(strcat(scalar, ": ", ftos(result)));
			return ftos(result);
		}
	}

	switch(scalar)
	{
		case "s_name":
			return s_name;

		case "f_health":
			return ftos(f_health);
		case "f_weapon":
			return ftos(f_weapon);
		case "f_ammo":
			return ftos(f_ammo);
		case "f_armor":
		{
			if(argv(0) == "graph")	
				return ftos((f_armor/f_armormax)*100);		//now its a scalar.
			else
				return ftos(f_armor);					//and now its a literal, suitable for being drawn as a string
		}
		case "f_weaponframe":
			return ftos(f_weaponframe);
		case "f_shells":
			return ftos(f_shells);
		case "f_nails":
			return ftos(f_nails);
		case "f_rockets":
			return ftos(f_rockets);
		case "f_cells":
			return ftos(f_cells);
		case "f_activeweapon":
			return ftos(f_activeweapon);
		case "f_totalsecrets":
			return ftos(f_totalsecrets);
		case "f_totalmonsters":
			return ftos(f_totalmonsters);
		case "f_secrets":
			return ftos(f_secrets);
		case "f_monsters":
			return ftos(f_monsters);
		case "f_items":
			return ftos(f_items);

		case "f_hassg":
			return ftos(hasItem(IT_SHOTGUN));
		case "f_hasssg":
			return ftos(hasItem(IT_SUPER_SHOTGUN));
		case "f_hasng":
			return ftos(hasItem(IT_NAILGUN));
		case "f_hassgn":
			return ftos(hasItem(IT_SUPER_NAILGUN));
		case "f_hasgl":
			return ftos(hasItem(IT_GRENADE_LAUNCHER));
		case "f_hasrl":
			return ftos(hasItem(IT_ROCKET_LAUNCHER));
		case "f_haslg":
			return ftos(hasItem(IT_LIGHTNING));


		case "f_hasrune1":
			return ftos(hasRune(1));
		case "f_hasrune2":
			return ftos(hasRune(2));
		case "f_hasrune3":
			return ftos(hasRune(3));
		case "f_hasrune4":
			return ftos(hasRune(4));

		case "f_hassilverkey":
			return ftos(hasItem(IT_KEY1));
		case "f_hasgoldkey":
			return ftos(hasItem(IT_KEY2));

		case "f_hasquad":
			return ftos(hasItem(IT_QUAD));
		case "f_haspent":
			return ftos(hasItem(IT_INVULNERABILITY));
		case "f_hasring":
			return ftos(hasItem(IT_INVISIBILITY));
		case "f_hassuit":
			return ftos(hasItem(IT_SUIT));


		case "f_activeammo":
			return ftos(f_activeammo);
		case "f_activearmor":
			return ftos(f_activearmor);



		case "f_time":
			return ftos(time);
		case "f_paintime":					//baalz. how to make this last longer?
			return (((f_paintime - time) > 0) ? ftos((f_paintime - time)*500):"0");
		case "f_skill":
			return ftos(cvar("skill"));
		case "f_episode":
			return substring(cvar_string("mapname"), 1, 1);
		case "f_mission":
			return substring(cvar_string("mapname"), 3, 1);

		case "s_skillname":
			return nameFromSkill(cvar("skill"));
		case "s_mapname":
			return getMapname(cvar_string("mapname"));
		case "s_episodename":
			return getEpisodename(substring(cvar_string("mapname"), 1, 1));

		case "f_sin":
			return ftos(sin(time)*100);
		case "f_static":
			return "100";

		default: 
			return scalar;
	}
}

vector getDirectionFromString(string dir)
{
	switch(dir)
	{
		case "BAR_LEFT":
			return BAR_LEFT;
		case "BAR_RIGHT":
			return BAR_RIGHT;
		case "BAR_UP":
			return BAR_UP;
		case "BAR_DOWN":
			return BAR_DOWN;

		default: 
			return BAR_LEFT;
	}
}

//need to use f_health_20
string getFaceByHealth(string stat)
{
	if(f_items & IT_QUAD)
	{
		if(f_items & IT_INVULNERABILITY)
			return "face_inv2";
		else
			return "face_quad";	
	}
	if(f_items & IT_INVULNERABILITY)
		return "face_invuln";
	if(f_items & IT_INVISIBILITY)
		return "face_invis";

	if(f_paintime > time)	//paintime is 2 full seconds so we can use it as a stat scalar for opacity (or a graph if you want...but why?)
	{
		switch(stat)
		{
			case "250":
			case "240":
			case "220":
			case "200":
			case "180":
			case "160":
			case "140":
			case "120":
			case "100":
				return "face_p1";
			case "80":
				return "face_p1";
			case "60":
				return "face_p2";
			case "40":
				return "face_p3";
			case "20":
				return "face_p4";
			default:
				return "face_p5";
		}
	}		

	else
	{
		switch(stat)
		{
			case "250":
			case "240":
			case "220":
			case "200":
			case "180":
			case "160":
			case "140":
			case "120":
			case "100":
				return "face1";
			case "80":
				return "face1";
			case "60":
				return "face2";
			case "40":
				return "face3";
			case "20":
				return "face4";
			default:
				return "face5";
		}
	}		
}

string getRuneIcon(string rune)
{	
	switch(stof(rune))
	{
		case 1:
			return "sb_sigil1";
		case 2:
			return "sb_sigil2";
		case 3:
			return "sb_sigil3";
		case 4:
		default:
			return "sb_sigil4";
	}
}


float getAmmoByWeapon(float item)
{	switch(item)
	{
		case IT_SHOTGUN:
		case IT_SUPER_SHOTGUN:
			return IT_SHELLS;
		case IT_NAILGUN:
		case IT_SUPER_NAILGUN:
			return IT_NAILS;
		case IT_GRENADE_LAUNCHER:
		case IT_ROCKET_LAUNCHER:
			return IT_ROCKETS;
		case IT_LIGHTNING:
			return IT_CELLS;
		default: 
			return 0;
	}
}
