

string nameFromSkill(float skillnum)
{
	switch(skillnum)
	{
		case 1:
			return "normal";
		case 2:
			return "hard";
		case 3:
			return "nightmare";
		default:
			return "easy";
	}
}

string getEpisodename(string e) =
{
	switch(e)
	{
		case "1":
			return "Dimension of the Doomed";
		case "2":
			return "Realm of Black Magic";
		case "3":
			return "The Netherworld";
		case "4":
			return "The Elderworld";
		default: 
			return "";
	}
}

string getMapname(string m) =
{
	switch(m) 
	{
		case "start":
			return "Introduction...";
		case "e1m1":
			return "The Slipgate Complex";
		case "e1m2":
			return "Castle of the Damned";
		case "e1m3":
			return "The Necropolis";
		case "e1m4":
			return "The Gristly Grotto";
		case "e1m5":
			return "Gloom Keep";
		case "e1m6":
			return "The Door to Cthon";
		case "e1m7":
			return "The House of Cthon";
		case "e1m8":
			return "Ziggurat Vertigo";

		case "e2m1":
			return "The Installation";
		case "e2m2":
			return "The Ogre Citadel";
		case "e2m3":
			return "The Crypt of Decay";
		case "e2m4":
			return "The Ebon Fortress";
		case "e2m5":
			return "The Wizard's Manse";
		case "e2m6":
			return "The Dismal Oubliette";
		case "e2m7":
			return "The Underearth";

		case "e3m1":
			return "Termination Central";
		case "e3m2":
			return "The Vaults of Zin";
		case "e3m3":
			return "The Tomb of Terror";
		case "e3m4":
			return "Satan's Dark Delight";
		case "e3m5":
			return "The Wind Tunnels";
		case "e3m6":
			return "Chambers of Torment";
		case "e3m7":
			return "The Haunted Halls";

		case "e4m1":
			return "The Sewage System";
		case "e4m2":
			return "The Tower of Despair";
		case "e4m3":
			return "The Elder God Shrine";
		case "e4m4":
			return "The Palace of Hate";
		case "e4m5":
			return "Hell's Atrium";
		case "e4m6":
			return "The Pain Maze";
		case "e4m7":
			return "Azure Agony";
		case "e4m8":
			return "The Nameless City";
		case "end":
			return "Shub-Niggurath's Pit";

		case "dm1":
			return "Place of two Deaths";
		case "dm2":
			return "Claustrophobopolis";
		case "dm3":
			return "The Abandoned Base";
		case "dm4":
			return "The Bad Place";
		case "dm5":
			return "The Cistern";
		case "dm6":
			return "The Dark Zone";

		default:
			return cvar_string("mapname");
	}
};